[
    {
        "name": "abs_eta_uncalib",
        "shift": 0.952991090211814,
        "scale": 0.643304138584195,
        "default": 0.952991090211814
    },
    {
        "name": "pt_uncalib",
        "shift": 94218.9147311792,
        "scale": 147866.4101404577,
        "default": 94218.9147311792
    },
    {
        "name": "JetFitter_mass",
        "shift": 2093.041005812185,
        "scale": 1373.1260401511565,
        "default": 2093.040999947032
    },
    {
        "name": "JetFitter_isDefaults",
        "shift": 0.0,
        "scale": 1.0,
        "default": null
    },
    {
        "name": "JetFitter_energyFraction",
        "shift": 0.31036119022551634,
        "scale": 0.34644135665266385,
        "default": 0
    },
    {
        "name": "JetFitter_significance3d",
        "shift": 10.240567049280264,
        "scale": 16.501616839397666,
        "default": 0
    },
    {
        "name": "JetFitter_nVTX",
        "shift": 0.11921287992921539,
        "scale": 0.979892293339122,
        "default": -1
    },
    {
        "name": "JetFitter_nSingleTracks",
        "shift": 0.022112309695708793,
        "scale": 0.9795317830735027,
        "default": -1
    },
    {
        "name": "JetFitter_nTracksAtVtx",
        "shift": 0.956353114327144,
        "scale": 2.0657033304742787,
        "default": -1
    },
    {
        "name": "JetFitter_N2Tpair",
        "shift": 1.7150058045118666,
        "scale": 4.231158683746273,
        "default": -1
    },
    {
        "name": "JetFitter_deltaR",
        "shift": 0.0537174942109519,
        "scale": 0.05171394798837866,
        "default": 0.053717494330508514
    },
    {
        "name": "SV1_NGTinSvx",
        "shift": 1.014907214769113,
        "scale": 2.733912872228132,
        "default": -1
    },
    {
        "name": "SV1_masssvx",
        "shift": 2000.0709273356586,
        "scale": 740.1976385718242,
        "default": 2000.07093409004
    },
    {
        "name": "SV1_isDefaults",
        "shift": 0.0,
        "scale": 1.0,
        "default": null
    },
    {
        "name": "SV1_N2Tpair",
        "shift": 1.3173046194783766,
        "scale": 4.329399331521254,
        "default": -1
    },
    {
        "name": "SV1_efracsvx",
        "shift": 0.23820970147679948,
        "scale": 0.3329730579336111,
        "default": 0
    },
    {
        "name": "SV1_deltaR",
        "shift": 0.05765331532738876,
        "scale": 0.10036715959565241,
        "default": 0.057653315270261324
    },
    {
        "name": "SV1_Lxy",
        "shift": 12.082644499605777,
        "scale": 12.134854098265643,
        "default": 12.082644555369424
    },
    {
        "name": "SV1_L3d",
        "shift": 20.850839551501075,
        "scale": 23.39055306444441,
        "default": 20.85083945605139
    },
    {
        "name": "SV1_significance3d",
        "shift": 30.84325810299582,
        "scale": 26.015418959679206,
        "default": 30.843258402663245
    },
    {
        "name": "IP2D_bu",
        "shift": 0.7888932325906941,
        "scale": 5.019831109643548,
        "default": 0.7888932326701354
    },
    {
        "name": "IP2D_isDefaults",
        "shift": 0.0,
        "scale": 1.0,
        "default": null
    },
    {
        "name": "IP2D_bc",
        "shift": -0.6081399695476917,
        "scale": 2.2607264902862565,
        "default": -0.6081399693255334
    },
    {
        "name": "IP2D_cu",
        "shift": 1.3884591145996381,
        "scale": 2.8710005011964337,
        "default": 1.3884591149343433
    },
    {
        "name": "IP3D_bu",
        "shift": 1.02892567257347,
        "scale": 5.62757701314148,
        "default": 1.028925672650912
    },
    {
        "name": "IP3D_isDefaults",
        "shift": 0.0,
        "scale": 1.0,
        "default": null
    },
    {
        "name": "IP3D_bc",
        "shift": -0.5892327155206555,
        "scale": 2.6479153864728273,
        "default": -0.5892327153200935
    },
    {
        "name": "IP3D_cu",
        "shift": 1.613185832435961,
        "scale": 3.1842458316208875,
        "default": 1.6131858320064363
    },
    {
        "name": "secondaryVtx_nTrks",
        "shift": 1.2484700654583716,
        "scale": 1.3408127170655544,
        "default": 0
    },
    {
        "name": "secondaryVtx_isDefaults",
        "shift": 0.0,
        "scale": 1.0,
        "default": null
    },
    {
        "name": "secondaryVtx_m",
        "shift": 732.7252798321628,
        "scale": 597.1379808096792,
        "default": 732.7252792765639
    },
    {
        "name": "secondaryVtx_E",
        "shift": 53453.903057514224,
        "scale": 141869.45361517687,
        "default": 53453.90348413354
    },
    {
        "name": "secondaryVtx_EFrac",
        "shift": 0.16896817715008292,
        "scale": 0.22443938022385726,
        "default": 0
    },
    {
        "name": "secondaryVtx_L3d",
        "shift": 23.786607438209455,
        "scale": 35.82823633080672,
        "default": 23.786607256447773
    },
    {
        "name": "secondaryVtx_Lxy",
        "shift": 13.110775205517434,
        "scale": 17.54809039208591,
        "default": 13.110775332003982
    },
    {
        "name": "secondaryVtx_max_trk_flightDirRelEta",
        "shift": 4.387711600201921,
        "scale": 0.9736746544528373,
        "default": 4.3877116451722555
    },
    {
        "name": "secondaryVtx_min_trk_flightDirRelEta",
        "shift": 3.794726117101954,
        "scale": 0.8935064368814335,
        "default": 3.794726107392499
    },
    {
        "name": "secondaryVtx_avg_trk_flightDirRelEta",
        "shift": 4.088887254068851,
        "scale": 0.8856392279167901,
        "default": 4.08888727762327
    },
    {
        "name": "max_trk_flightDirRelEta",
        "shift": 5.166187464399874,
        "scale": 1.1451813604873835,
        "default": 5.166187464399874
    },
    {
        "name": "min_trk_flightDirRelEta",
        "shift": 2.2807647621057123,
        "scale": 0.5638503382673725,
        "default": 2.2807647621057123
    },
    {
        "name": "avg_trk_flightDirRelEta",
        "shift": 3.363944585306131,
        "scale": 0.7569640671449004,
        "default": 3.363944585306131
    },
    {
        "name": "rnnip_pb",
        "shift": 0.3133149152753745,
        "scale": 0.3409564483837597,
        "default": 0.31331491527685185
    },
    {
        "name": "rnnip_pc",
        "shift": 0.17442019537566086,
        "scale": 0.11395308694088115,
        "default": 0.1744201953822159
    },
    {
        "name": "rnnip_pu",
        "shift": 0.48809194583053583,
        "scale": 0.3431264327907434,
        "default": 0.4880919458310069
    },
    {
        "name": "rnnip_ptau",
        "shift": 0.02417294349346715,
        "scale": 0.08242024138742989,
        "default": 0.02417294349452102
    },
    {
        "name": "rnnip_isDefaults",
        "shift": 0.0,
        "scale": 1.0,
        "default": null
    },
    {
        "name": "SMT_dR",
        "shift": 0.07166723130154952,
        "scale": 0.020955492051236136,
        "default": 0.07166722842642159
    },
    {
        "name": "SMT_mu_d0",
        "shift": -0.007703157619839829,
        "scale": 0.28103205534272335,
        "default": -0.00770315773178269
    },
    {
        "name": "SMT_qOverPratio",
        "shift": 12.904015558279452,
        "scale": 544.843804192942,
        "default": 12.904015713908427
    },
    {
        "name": "SMT_pTrel",
        "shift": 6232.3598813730605,
        "scale": 3756.7539982292597,
        "default": 6232.36004504477
    },
    {
        "name": "SMT_scatneighsignif",
        "shift": 0.28659448147418976,
        "scale": 0.8598552732916399,
        "default": 0.2865944923129133
    },
    {
        "name": "SMT_mombalsignif",
        "shift": 0.5947294228611123,
        "scale": 0.45072038718021723,
        "default": 0.5947294168736551
    },
    {
        "name": "SMT_isDefaults",
        "shift": 0.0,
        "scale": 1.0,
        "default": null
    },
    {
        "name": "iprnn_pb",
        "shift": 0.3841776627211336,
        "scale": 0.36145883223400077,
        "default": 0.3841776627211336
    },
    {
        "name": "iprnn_pc",
        "shift": 0.18038043970608567,
        "scale": 0.14839514601537157,
        "default": 0.18038043970608567
    },
    {
        "name": "iprnn_pu",
        "shift": 0.4354418975358995,
        "scale": 0.3676664789294893,
        "default": 0.4354418975358995
    },
    {
        "name": "softMuon_pt",
        "shift": 25637.00984443025,
        "scale": 18117.592081393705,
        "default": 25637.01068164686
    },
    {
        "name": "softMuon_dR",
        "shift": 0.06292369950847142,
        "scale": 0.017092246395466578,
        "default": 0.06292369835137857
    },
    {
        "name": "softMuon_eta",
        "shift": 0.0021122905917557323,
        "scale": 0.32406009100309474,
        "default": 0.00211229061955698
    },
    {
        "name": "softMuon_phi",
        "shift": 0.017952280161953937,
        "scale": 0.5294587242578614,
        "default": 0.017952280617637827
    },
    {
        "name": "softMuon_qOverPratio",
        "shift": 3.5234472675601785,
        "scale": 306.4749676384311,
        "default": 3.523447186802137
    },
    {
        "name": "softMuon_momentumBalanceSignificance",
        "shift": 0.5833649062071773,
        "scale": 0.4181631788498867,
        "default": 0.583364930433082
    },
    {
        "name": "softMuon_scatteringNeighbourSignificance",
        "shift": 0.28197753422510513,
        "scale": 0.7770133603301392,
        "default": 0.28197753349181104
    },
    {
        "name": "softMuon_pTrel",
        "shift": 5574.968246219865,
        "scale": 2991.758678863667,
        "default": 5574.968081561741
    },
    {
        "name": "softMuon_ip3dD0",
        "shift": 0.21646939273494153,
        "scale": 0.20301683236890294,
        "default": 0.2164693986258615
    },
    {
        "name": "softMuon_ip3dZ0",
        "shift": 0.4003620157239308,
        "scale": 1.9165163511633505,
        "default": 0.4003620258529754
    },
    {
        "name": "softMuon_ip3dD0Significance",
        "shift": 9.630061185768,
        "scale": 6.260948787947274,
        "default": 9.63006157004221
    },
    {
        "name": "softMuon_ip3dZ0Significance",
        "shift": 5.0255541672687105,
        "scale": 21.165023932757858,
        "default": 5.025554030469874
    },
    {
        "name": "softMuon_ip3dD0Uncertainty",
        "shift": 0.02121174142838063,
        "scale": 0.0046373861306424555,
        "default": 0.02121174075087968
    },
    {
        "name": "softMuon_ip3dZ0Uncertainty",
        "shift": 0.017016382920309655,
        "scale": 1.9201040806309693,
        "default": 0.017016383263993677
    },
    {
        "name": "softMuon_isDefaults",
        "shift": 0.0,
        "scale": 1.0,
        "default": null
    },
    {
        "name": "smt_b",
        "shift": 0.6428466442255998,
        "scale": 0.0650408742881551,
        "default": 0.6428466474221809
    },
    {
        "name": "smt_c",
        "shift": 0.10784635700597656,
        "scale": 0.01773395842345962,
        "default": 0.10784635783068643
    },
    {
        "name": "smt_u",
        "shift": 0.12674054496841988,
        "scale": 0.06456691403184836,
        "default": 0.12674054426736409
    },
    {
        "name": "averageInteractionsPerCrossing",
        "shift": 33.75613145971301,
        "scale": 13.48188538540136,
        "default": 33.75613145971301
    },
    {
        "name": "actualInteractionsPerCrossing",
        "shift": 33.75613145971301,
        "scale": 13.48188538540136,
        "default": 33.75613145971301
    },
    {
        "name": "HadronConeExclTruthLabelID",
        "shift": 3.0,
        "scale": 2.160246899469287,
        "default": 3.0
    }
]